.....
----------------------------------------------------------------------
Ran 5 tests in 0.002s

OK
Name               Stmts   Miss Branch BrPart  Cover   Missing
--------------------------------------------------------------
Diplomacy.py         103      0     64      6    96%   94->84, 98->101, 165->170, 193->188, 197->188, 198->188
TestDiplomacy.py      31      0      2      0   100%
--------------------------------------------------------------
TOTAL                134      0     66      6    97%