Name               Stmts   Miss  Cover   Missing
------------------------------------------------
Diplomacy.py          82      5    94%   82, 89-92, 118
TestDiplomacy.py      57      0   100%
------------------------------------------------
TOTAL                139      5    96%
