.........
----------------------------------------------------------------------
Ran 9 tests in 0.002s

OK
Name               Stmts   Miss Branch BrPart  Cover   Missing
--------------------------------------------------------------
Diplomacy.py          78      0     42      0   100%
TestDiplomacy.py      54      0     10      1    98%   79->exit
--------------------------------------------------------------
TOTAL                132      0     52      1    99%
