............
----------------------------------------------------------------------
Ran 12 tests in 0.001s

OK
Name               Stmts   Miss Branch BrPart  Cover   Missing
--------------------------------------------------------------
Diplomacy.py          64      0     44      0   100%
TestDiplomacy.py      57      0      2      0   100%
--------------------------------------------------------------
TOTAL                121      0     46      0   100%
