.........
----------------------------------------------------------------------
Ran 9 tests in 0.001s

OK
Name               Stmts   Miss Branch BrPart  Cover   Missing
--------------------------------------------------------------
Diplomacy.py          52      0     34      0   100%
TestDiplomacy.py      49      0      0      0   100%
--------------------------------------------------------------
TOTAL                101      0     34      0   100%
